<?xml version="1.0" encoding="UTF-8"?>
<svg height="16px" viewBox="0 0 16 16" width="16px" xmlns="http://www.w3.org/2000/svg">
    <path d="m 8 0.992188 c -3.867188 0 -7 3.136718 -7 7.003906 c 0 3.480468 2.554688 6.4375 6 6.933594 v -2.019532 c -0.597656 -0.210937 -1 -0.777344 -1 -1.410156 s 0.402344 -1.199219 1 -1.410156 v -4.179688 c -0.597656 -0.210937 -1 -0.777344 -1 -1.410156 c 0 -0.828125 0.671875 -1.5 1.5 -1.5 s 1.5 0.671875 1.5 1.5 c 0 0.632812 -0.402344 1.199219 -1 1.410156 v 4.175782 c 0.148438 0.054687 0.289062 0.128906 0.417969 0.226562 l 2.207031 -2.210938 c -0.082031 -0.191406 -0.125 -0.394531 -0.125 -0.601562 c 0 -0.828125 0.671875 -1.5 1.5 -1.5 s 1.5 0.671875 1.5 1.5 s -0.671875 1.5 -1.5 1.5 c -0.238281 0 -0.476562 -0.058594 -0.6875 -0.167969 l -2.347656 2.34375 c 0.023437 0.105469 0.035156 0.214844 0.035156 0.324219 c 0 0.632812 -0.402344 1.199219 -1 1.410156 v 2.089844 c 3.867188 0 7 -3.136719 7 -7.003906 c 0 -3.867188 -3.132812 -7.003906 -7 -7.003906 z m 0 0" fill="#241f31"/>
</svg>
